{
  "workbench.colorTheme": "Night Owl (No Italics)",
  "editor.fontFamily": "Fira Code",
  "editor.inlineSuggest.enabled": true,
  "workbench.iconTheme": "material-icon-theme",
  "haskell.manageHLS": "GHCup",
  "editor.mouseWheelZoom": true,
  "editor.cursorSmoothCaretAnimation": true,
  "editor.fontLigatures": true,
  "editor.codeActionsOnSave": {
    "source.fixAll": true,
    "source.sortImports": true,
    // "source.organizeImports": true,
    "addMissingImports": true
  },
  "editor.formatOnSave": true,
  "terminal.integrated.fontFamily": "MesloLGS NF",
  "files.autoSave": "onFocusChange",
  // "vim.vimrc.enable": true,
  // "vim.vimrc.path": "$HOME/.config/nvim/init.vim",
  "[html]": {
    "editor.defaultFormatter": "vscode.html-language-features"
  },
  "[css]": {
    "editor.defaultFormatter": "vscode.css-language-features"
  },
  "editor.guides.bracketPairs": true,
  "editor.guides.bracketPairsHorizontal": true,
  "editor.lineNumbers": "relative",
  "editor.linkedEditing": true,
  "telemetry.telemetryLevel": "off",
  "liveServer.settings.donotShowInfoMsg": true,
  "explorer.confirmDragAndDrop": false,
  "explorer.confirmDelete": false,
  "git.autofetch": true,
  "github.copilot.enable": {
    "*": true,
    "yaml": false,
    "plaintext": true,
    "markdown": true,
    "python": true,
    "sql": true,
    "cpp": true
  },
  "markdown-preview-enhanced.previewTheme": "github-dark.css",
  "terminal.integrated.inheritEnv": false,
  "python.languageServer": "Pylance",
  "python.analysis.typeCheckingMode": "basic",
  "python.linting.pylintEnabled": true,
  "python.linting.enabled": true,
  "python.formatting.provider": "black",
  "[jsonc]": {
    "editor.defaultFormatter": "esbenp.prettier-vscode"
  },
  "cmake.configureOnOpen": true,
  "[sql]": {
    "editor.defaultFormatter": "mtxr.sqltools"
  },
  "git.enableSmartCommit": true,
  "editor.cursorBlinking": "smooth",
  "pymakr.devices.configs": {
    "Pye48d75": {
      "autoConnect": "onLostConnection",
      "name": "",
      "username": "micro",
      "password": "python",
      "hidden": false,
      "rootPath": null,
      "adapterOptions": {}
    },
    "serial:///dev/ttyS0": {
      "autoConnect": "onLostConnection",
      "name": "",
      "username": "micro",
      "password": "python",
      "hidden": false,
      "rootPath": null,
      "adapterOptions": {}
    },
    "serial:///dev/ttyS1": {
      "autoConnect": "onLostConnection",
      "name": "",
      "username": "micro",
      "password": "python",
      "hidden": false,
      "rootPath": null,
      "adapterOptions": {}
    },
    "serial:///dev/ttyS10": {
      "autoConnect": "onLostConnection",
      "name": "",
      "username": "micro",
      "password": "python",
      "hidden": false,
      "rootPath": null,
      "adapterOptions": {}
    },
    "serial:///dev/ttyS11": {
      "autoConnect": "onLostConnection",
      "name": "",
      "username": "micro",
      "password": "python",
      "hidden": false,
      "rootPath": null,
      "adapterOptions": {}
    },
    "serial:///dev/ttyS12": {
      "autoConnect": "onLostConnection",
      "name": "",
      "username": "micro",
      "password": "python",
      "hidden": false,
      "rootPath": null,
      "adapterOptions": {}
    },
    "serial:///dev/ttyS13": {
      "autoConnect": "onLostConnection",
      "name": "",
      "username": "micro",
      "password": "python",
      "hidden": false,
      "rootPath": null,
      "adapterOptions": {}
    },
    "serial:///dev/ttyS14": {
      "autoConnect": "onLostConnection",
      "name": "",
      "username": "micro",
      "password": "python",
      "hidden": false,
      "rootPath": null,
      "adapterOptions": {}
    },
    "serial:///dev/ttyS15": {
      "autoConnect": "onLostConnection",
      "name": "",
      "username": "micro",
      "password": "python",
      "hidden": false,
      "rootPath": null,
      "adapterOptions": {}
    },
    "serial:///dev/ttyS16": {
      "autoConnect": "onLostConnection",
      "name": "",
      "username": "micro",
      "password": "python",
      "hidden": false,
      "rootPath": null,
      "adapterOptions": {}
    },
    "serial:///dev/ttyS17": {
      "autoConnect": "onLostConnection",
      "name": "",
      "username": "micro",
      "password": "python",
      "hidden": false,
      "rootPath": null,
      "adapterOptions": {}
    },
    "serial:///dev/ttyS18": {
      "autoConnect": "onLostConnection",
      "name": "",
      "username": "micro",
      "password": "python",
      "hidden": false,
      "rootPath": null,
      "adapterOptions": {}
    },
    "serial:///dev/ttyS19": {
      "autoConnect": "onLostConnection",
      "name": "",
      "username": "micro",
      "password": "python",
      "hidden": false,
      "rootPath": null,
      "adapterOptions": {}
    },
    "serial:///dev/ttyS2": {
      "autoConnect": "onLostConnection",
      "name": "",
      "username": "micro",
      "password": "python",
      "hidden": false,
      "rootPath": null,
      "adapterOptions": {}
    },
    "serial:///dev/ttyS20": {
      "autoConnect": "onLostConnection",
      "name": "",
      "username": "micro",
      "password": "python",
      "hidden": false,
      "rootPath": null,
      "adapterOptions": {}
    },
    "serial:///dev/ttyS21": {
      "autoConnect": "onLostConnection",
      "name": "",
      "username": "micro",
      "password": "python",
      "hidden": false,
      "rootPath": null,
      "adapterOptions": {}
    },
    "serial:///dev/ttyS22": {
      "autoConnect": "onLostConnection",
      "name": "",
      "username": "micro",
      "password": "python",
      "hidden": false,
      "rootPath": null,
      "adapterOptions": {}
    },
    "serial:///dev/ttyS23": {
      "autoConnect": "onLostConnection",
      "name": "",
      "username": "micro",
      "password": "python",
      "hidden": false,
      "rootPath": null,
      "adapterOptions": {}
    },
    "serial:///dev/ttyS24": {
      "autoConnect": "onLostConnection",
      "name": "",
      "username": "micro",
      "password": "python",
      "hidden": false,
      "rootPath": null,
      "adapterOptions": {}
    },
    "serial:///dev/ttyS25": {
      "autoConnect": "onLostConnection",
      "name": "",
      "username": "micro",
      "password": "python",
      "hidden": false,
      "rootPath": null,
      "adapterOptions": {}
    },
    "serial:///dev/ttyS26": {
      "autoConnect": "onLostConnection",
      "name": "",
      "username": "micro",
      "password": "python",
      "hidden": false,
      "rootPath": null,
      "adapterOptions": {}
    },
    "serial:///dev/ttyS27": {
      "autoConnect": "onLostConnection",
      "name": "",
      "username": "micro",
      "password": "python",
      "hidden": false,
      "rootPath": null,
      "adapterOptions": {}
    },
    "serial:///dev/ttyS28": {
      "autoConnect": "onLostConnection",
      "name": "",
      "username": "micro",
      "password": "python",
      "hidden": false,
      "rootPath": null,
      "adapterOptions": {}
    },
    "serial:///dev/ttyS29": {
      "autoConnect": "onLostConnection",
      "name": "",
      "username": "micro",
      "password": "python",
      "hidden": false,
      "rootPath": null,
      "adapterOptions": {}
    },
    "serial:///dev/ttyS3": {
      "autoConnect": "onLostConnection",
      "name": "",
      "username": "micro",
      "password": "python",
      "hidden": false,
      "rootPath": null,
      "adapterOptions": {}
    },
    "serial:///dev/ttyS30": {
      "autoConnect": "onLostConnection",
      "name": "",
      "username": "micro",
      "password": "python",
      "hidden": false,
      "rootPath": null,
      "adapterOptions": {}
    },
    "serial:///dev/ttyS31": {
      "autoConnect": "onLostConnection",
      "name": "",
      "username": "micro",
      "password": "python",
      "hidden": false,
      "rootPath": null,
      "adapterOptions": {}
    },
    "serial:///dev/ttyS4": {
      "autoConnect": "onLostConnection",
      "name": "",
      "username": "micro",
      "password": "python",
      "hidden": false,
      "rootPath": null,
      "adapterOptions": {}
    },
    "serial:///dev/ttyS5": {
      "autoConnect": "onLostConnection",
      "name": "",
      "username": "micro",
      "password": "python",
      "hidden": false,
      "rootPath": null,
      "adapterOptions": {}
    },
    "serial:///dev/ttyS6": {
      "autoConnect": "onLostConnection",
      "name": "",
      "username": "micro",
      "password": "python",
      "hidden": false,
      "rootPath": null,
      "adapterOptions": {}
    },
    "serial:///dev/ttyS7": {
      "autoConnect": "onLostConnection",
      "name": "",
      "username": "micro",
      "password": "python",
      "hidden": false,
      "rootPath": null,
      "adapterOptions": {}
    },
    "serial:///dev/ttyS8": {
      "autoConnect": "onLostConnection",
      "name": "",
      "username": "micro",
      "password": "python",
      "hidden": false,
      "rootPath": null,
      "adapterOptions": {}
    },
    "serial:///dev/ttyS9": {
      "autoConnect": "onLostConnection",
      "name": "",
      "username": "micro",
      "password": "python",
      "hidden": false,
      "rootPath": null,
      "adapterOptions": {}
    }
  }
}
